Assignment2
…
Part 2 B

###Renaming column.
student_debt %>%
  rename(student_loan_debt_percent = loan_debt_pct) %>%
  print()

## # A tibble: 30 x 4
##     year race     loan_debt student_loan_debt_percent
##    <dbl> <chr>        <dbl>                     <dbl>
##  1  2016 White       11108.                     0.337
##  2  2016 Black       14225.                     0.418
##  3  2016 Hispanic     7494.                     0.219
##  4  2013 White        8364.                     0.285
##  5  2013 Black       10303.                     0.412
##  6  2013 Hispanic     3177.                     0.157
##  7  2010 White        8042.                     0.280
##  8  2010 Black        9510.                     0.321
##  9  2010 Hispanic     3089.                     0.144
## 10  2007 White        5264.                     0.197
## # ... with 20 more rows
…
###Arranging column in ascending order.
student_debt %>%
  arrange(race) %>%
  print()

## # A tibble: 30 x 4
##     year race  loan_debt loan_debt_pct
##    <dbl> <chr>     <dbl>         <dbl>
##  1  2016 Black    14225.         0.418
##  2  2013 Black    10303.         0.412
##  3  2010 Black     9510.         0.321
##  4  2007 Black     6111.         0.283
##  5  2004 Black     3987.         0.216
##  6  2001 Black     2224.         0.185
##  7  1998 Black     1325.         0.141
##  8  1995 Black     1923.         0.170
##  9  1992 Black      927.         0.138
## 10  1989 Black     1161.         0.179
## # ... with 20 more rows
…
